{"data":{"searchProductsResultV2":{"correctedQuery":null,"responseId":"b4b2fcad06894047bf2321347c71b269","searchProducts":[{"fuelSaverAmount":0,"isBuyAgain":false,"isPersonalized":false,"onSale":true,"price":15.69,"productId":2783365,"responseProductId":"5c2d14db7bce485c9d416abe5f6fbe2f","storeProductId":0,"adId":"","basePrice":16.99,"basePriceMultiple":1,"priceMultiple":1,"sponsored":null,"slotTypeId":1,"shelfProductId":"41960ef0296c40b99b7cf58bdab7ff16","__typename":"SearchProduct"},{"fuelSaverAmount":0,"isBuyAgain":false,"isPersonalized":false,"onSale":true,"price":3.99,"productId":341659,"responseProductId":"4d3647cb55524800b439cc638d51e6e8","storeProductId":0,"adId":"","basePrice":4.99,"basePriceMultiple":1,"priceMultiple":1,"sponsored":null,"slotTypeId":1,"shelfProductId":"130d3ed5b4da429f8f84ca395506db5f","__typename":"SearchProduct"},{"fuelSaverAmount":0,"isBuyAgain":false,"isPersonalized":false,"onSale":true,"price":15.69,"productId":2783369,"responseProductId":"25fd148f43cd4a2fabecc809c937faca","storeProductId":0,"adId":"","basePrice":16.99,"basePriceMultiple":1,"priceMultiple":1,"sponsored":null,"slotTypeId":1,"shelfProductId":"af56d33f2881458c9f1807df3b6f44ce","__typename":"SearchProduct"},{"fuelSaverAmount":0,"isBuyAgain":false,"isPersonalized":false,"onSale":false,"price":9.99,"productId":3210939,"responseProductId":"e6f6145cf86e4dcb896ce3bcc45ab95a","storeProductId":0,"adId":"","basePrice":9.99,"basePriceMultiple":1,"priceMultiple":1,"sponsored":null,"slotTypeId":1,"shelfProductId":"9d5c6340be34426b8381d098d4b7c09c","__typename":"SearchProduct"},{"fuelSaverAmount":0,"isBuyAgain":false,"isPersonalized":false,"onSale":true,"price":7.99,"productId":2896592,"responseProductId":"34ef74da5f8346fa89157070d74f8147","storeProductId":0,"adId":"","basePrice":8.99,"basePriceMultiple":1,"priceMultiple":1,"sponsored":null,"slotTypeId":6,"shelfProductId":"e8c30cf140b64c59a500742d1a15f147","__typename":"SearchProduct"}],"searchFilters":[{"id":"BUY_AGAIN","name":"Buy Again","searchFilterOptions":[{"id":"BUY_AGAIN","name":"Buy Again","count":0,"__typename":"SearchFilterOption"}],"__typename":"SearchFilter"},{"id":"ON_SALE","name":"Sale","searchFilterOptions":[{"id":"ON_SALE","name":"On Sale","count":24,"__typename":"SearchFilterOption"}],"__typename":"SearchFilter"},{"id":"FUEL_SAVER","name":"Fuel Saver","searchFilterOptions":[{"id":"FUEL_SAVER","name":"Fuel Saver","count":0,"__typename":"SearchFilterOption"}],"__typename":"SearchFilter"},{"id":"DIGITAL_COUPON","name":"Coupon","searchFilterOptions":[{"id":"HAS_COUPON","name":"Coupon","count":0,"__typename":"SearchFilterOption"}],"__typename":"SearchFilter"},{"id":"BRAND","name":"Brand","searchFilterOptions":[{"id":"KIND","name":"Kind","count":62,"__typename":"SearchFilterOption"}],"__typename":"SearchFilter"},{"id":"CATEGORY","name":"Category","searchFilterOptions":[{"id":"PROTEIN_AND_SNACK_BARS","name":"Protein & Snack Bars","count":62,"__typename":"SearchFilterOption"}],"__typename":"SearchFilter"},{"id":"DIET_AND_LIFESTYLE","name":"Diet & Lifestyle","searchFilterOptions":[{"id":"KOSHER","name":"Kosher","count":55,"__typename":"SearchFilterOption"},{"id":"GLUTEN_FREE","name":"Gluten Free","count":54,"__typename":"SearchFilterOption"},{"id":"LOW_GLYCEMIC","name":"Low Glycemic","count":31,"__typename":"SearchFilterOption"},{"id":"NON-GMO","name":"Non-GMO","count":30,"__typename":"SearchFilterOption"},{"id":"DAIRY_FREE","name":"Dairy Free","count":18,"__typename":"SearchFilterOption"},{"id":"LACTOSE_FREE","name":"Lactose Free","count":4,"__typename":"SearchFilterOption"},{"id":"ARTIFICIAL_FLAVOR_FREE","name":"Artificial Flavor Free","count":2,"__typename":"SearchFilterOption"},{"id":"NUT_FREE","name":"Nut Free","count":1,"__typename":"SearchFilterOption"}],"__typename":"SearchFilter"},{"id":"SECTION","name":"Section","searchFilterOptions":[{"id":"FREEZER","name":"Freezer","count":1,"__typename":"SearchFilterOption"},{"id":"PANTRY","name":"Pantry","count":54,"__typename":"SearchFilterOption"}],"__typename":"SearchFilter"},{"id":"FLAVOR","name":"Flavor","searchFilterOptions":[{"id":"ALMOND_AND_COCONUT","name":"Almond & Coconut","count":2,"__typename":"SearchFilterOption"},{"id":"ALMOND_BUTTER_DARK_CHOCOLATE","name":"Almond Butter Dark Chocolate","count":1,"__typename":"SearchFilterOption"},{"id":"BLUEBERRY_VANILLA_AND_CASHEW","name":"Blueberry Vanilla & Cashew","count":1,"__typename":"SearchFilterOption"},{"id":"CARAMEL_ALMOND_AND_SEA_SALT","name":"Caramel Almond & Sea Salt","count":6,"__typename":"SearchFilterOption"},{"id":"CHOCOLATE_CHIP","name":"Chocolate Chip","count":1,"__typename":"SearchFilterOption"},{"id":"CHOCOLATE_CHUNK","name":"Chocolate Chunk","count":1,"__typename":"SearchFilterOption"},{"id":"CINNAMON_WITH_ALMONDS","name":"Cinnamon with Almonds","count":1,"__typename":"SearchFilterOption"},{"id":"CRANBERRY_ALMOND","name":"Cranberry Almond","count":1,"__typename":"SearchFilterOption"},{"id":"CRANBERRY_ALMOND_WITH_MACADAMIA_NUTS","name":"Cranberry Almond with Macadamia Nuts","count":1,"__typename":"SearchFilterOption"},{"id":"DARK_CHOCOLATE_AND_OATS","name":"Dark Chocolate & Oats","count":1,"__typename":"SearchFilterOption"},{"id":"DARK_CHOCOLATE_ALMOND_AND_COCONUT","name":"Dark Chocolate Almond & Coconut","count":1,"__typename":"SearchFilterOption"},{"id":"DARK_CHOCOLATE_CHERRY_CASHEW","name":"Dark Chocolate Cherry Cashew","count":4,"__typename":"SearchFilterOption"},{"id":"DARK_CHOCOLATE_CHUNK","name":"Dark Chocolate Chunk","count":2,"__typename":"SearchFilterOption"},{"id":"DARK_CHOCOLATE_MOCHA_ALMOND","name":"Dark Chocolate Mocha Almond","count":1,"__typename":"SearchFilterOption"},{"id":"DARK_CHOCOLATE_NUT","name":"Dark Chocolate Nut","count":1,"__typename":"SearchFilterOption"},{"id":"DARK_CHOCOLATE_NUTS_AND_SEA_SALT","name":"Dark Chocolate Nuts & Sea Salt","count":5,"__typename":"SearchFilterOption"},{"id":"DARK_CHOCOLATE_NUTS_AND_SEA_SALT_WITH_PEANUTS","name":"Dark Chocolate Nuts & Sea Salt with Peanuts","count":1,"__typename":"SearchFilterOption"},{"id":"HONEY_OAT","name":"Honey Oat","count":2,"__typename":"SearchFilterOption"},{"id":"MADAGASCAR_VANILLA_ALMOND","name":"Madagascar Vanilla Almond","count":1,"__typename":"SearchFilterOption"},{"id":"MAPLE_GLAZED_PECAN_AND_SEA_SALT","name":"Maple Glazed Pecan & Sea Salt","count":1,"__typename":"SearchFilterOption"},{"id":"MILK_CHOCOLATE_ALMOND","name":"Milk Chocolate Almond","count":1,"__typename":"SearchFilterOption"},{"id":"MILK_CHOCOLATE_CHUNK","name":"Milk Chocolate Chunk","count":1,"__typename":"SearchFilterOption"},{"id":"MILK_CHOCOLATE_PEANUT_BUTTER","name":"Milk Chocolate Peanut Butter","count":1,"__typename":"SearchFilterOption"},{"id":"OATS_AND_HONEY_WITH_TOASTED_COCONUT","name":"Oats & Honey with Toasted Coconut","count":1,"__typename":"SearchFilterOption"},{"id":"PEANUT_BUTTER","name":"Peanut Butter","count":3,"__typename":"SearchFilterOption"},{"id":"PEANUT_BUTTER_DARK_CHOCOLATE","name":"Peanut Butter Dark Chocolate","count":9,"__typename":"SearchFilterOption"},{"id":"POMEGRANATE_BLUEBERRY_PISTACHIO","name":"Pomegranate Blueberry Pistachio","count":1,"__typename":"SearchFilterOption"},{"id":"SALTED_CARAMEL","name":"Salted Caramel","count":1,"__typename":"SearchFilterOption"},{"id":"SALTED_CARAMEL_DARK_CHOCOLATE_NUT","name":"Salted Caramel Dark Chocolate Nut","count":2,"__typename":"SearchFilterOption"},{"id":"VANILLA_BLUEBERRY","name":"Vanilla Blueberry","count":1,"__typename":"SearchFilterOption"}],"__typename":"SearchFilter"},{"id":"TYPE","name":"Type","searchFilterOptions":[{"id":"WHOLE_GRAIN","name":"Whole Grain","count":19,"__typename":"SearchFilterOption"}],"__typename":"SearchFilter"},{"id":"SIZE","name":"Size","searchFilterOptions":[{"id":"MINIATURE","name":"Miniature","count":4,"__typename":"SearchFilterOption"},{"id":"THINS","name":"Thins","count":4,"__typename":"SearchFilterOption"}],"__typename":"SearchFilter"}],"pageInfo":{"page":1,"pageSize":5,"hasNextPage":true,"totalCount":62,"totalPages":13,"__typename":"PageInfo"},"__typename":"SearchProductsResult"}},"extensions":{"tracing":{"version":1,"startTime":"2023-03-31T22:23:14.226Z","endTime":"2023-03-31T22:23:14.406Z","duration":179655918,"execution":{"resolvers":[]}}}}
